{"tracks":{"href":"https://api.spotify.com/v1/search?query=let+it+be&type=track&offset=0&limit=1","items":[{"album":{"album_type":"album","artists":[{"external_urls":{"spotify":"https://open.spotify.com/artist/3WrFJ7ztbogyGnTHbHJFl2"},"href":"https://api.spotify.com/v1/artists/3WrFJ7ztbogyGnTHbHJFl2","id":"3WrFJ7ztbogyGnTHbHJFl2","name":"The Beatles","type":"artist","uri":"spotify:artist:3WrFJ7ztbogyGnTHbHJFl2"}],"available_markets":["CA","MX","US"],"external_urls":{"spotify":"https://open.spotify.com/album/0jTGHV5xqHPvEcwL8f6YU5"},"href":"https://api.spotify.com/v1/albums/0jTGHV5xqHPvEcwL8f6YU5","id":"0jTGHV5xqHPvEcwL8f6YU5","images":[{"height":640,"url":"https://i.scdn.co/image/b3651a85f2bca826b38194c51d09cd7b068aa3ab","width":640},{"height":300,"url":"https://i.scdn.co/image/a329e45d52649d9ef327764a202df6084aff20ce","width":300},{"height":64,"url":"https://i.scdn.co/image/8cae03783213449b24f247244a3b2049e98ee6e1","width":64}],"name":"Let It Be (Remastered)","type":"album","uri":"spotify:album:0jTGHV5xqHPvEcwL8f6YU5"},"artists":[{"external_urls":{"spotify":"https://open.spotify.com/artist/3WrFJ7ztbogyGnTHbHJFl2"},"href":"https://api.spotify.com/v1/artists/3WrFJ7ztbogyGnTHbHJFl2","id":"3WrFJ7ztbogyGnTHbHJFl2","name":"The Beatles","type":"artist","uri":"spotify:artist:3WrFJ7ztbogyGnTHbHJFl2"}],"available_markets":["CA","MX","US"],"disc_number":1,"duration_ms":243026,"explicit":false,"external_ids":{"isrc":"GBAYE0601713"},"external_urls":{"spotify":"https://open.spotify.com/track/7iN1s7xHE4ifF5povM6A48"},"href":"https://api.spotify.com/v1/tracks/7iN1s7xHE4ifF5povM6A48","id":"7iN1s7xHE4ifF5povM6A48","name":"Let It Be - Remastered","popularity":69,"preview_url":null,"track_number":6,"type":"track","uri":"spotify:track:7iN1s7xHE4ifF5povM6A48"}],"limit":1,"next":"https://api.spotify.com/v1/search?query=let+it+be&type=track&offset=1&limit=1","offset":0,"previous":null,"total":8158}}